%YAML 1.1
%TAG !u! tag:unity3d.com,2011:
--- !u!114 &11400000
MonoBehaviour:
  m_ObjectHideFlags: 0
  m_CorrespondingSourceObject: {fileID: 0}
  m_PrefabInstance: {fileID: 0}
  m_PrefabAsset: {fileID: 0}
  m_GameObject: {fileID: 0}
  m_Enabled: 1
  m_EditorHideFlags: 0
  m_Script: {fileID: 11500000, guid: 8e6292b2c06870d4495f009f912b9600, type: 3}
  m_Name: PostProcess Profile 1
  m_EditorClassIdentifier: 
  settings:
  - {fileID: 114048718686132678}
--- !u!114 &114048718686132678
MonoBehaviour:
  m_ObjectHideFlags: 3
  m_CorrespondingSourceObject: {fileID: 0}
  m_PrefabInstance: {fileID: 0}
  m_PrefabAsset: {fileID: 0}
  m_GameObject: {fileID: 0}
  m_Enabled: 1
  m_EditorHideFlags: 0
  m_Script: {fileID: 11500000, guid: 3bba290776795de40be65e06977bd97e, type: 3}
  m_Name: TextureOverlay
  m_EditorClassIdentifier: 
  active: 1
  enabled:
    overrideState: 1
    value: 1
  texture:
    overrideState: 1
    value: {fileID: 8400000, guid: cd9ab2b2339c1694dbb4d868104bfd04, type: 2}
    defaultState: 1
  tiling:
    overrideState: 0
    value: {x: 1, y: 1}
  offset:
    overrideState: 0
    value: {x: 0, y: 0}
  keepAspectRatio:
    overrideState: 0
    value: 0
  alphaIsTransparent:
    overrideState: 0
    value: 1
